^C:\MY PROJECTS\C++\CONSOLEAPPLICATION1\CONSOLEAPPLICATION1.CPP
C:\MY PROJECTS\C++\CONSOLEAPPLICATION1\DEBUG\VC142.PDB
C:\MY PROJECTS\C++\CONSOLEAPPLICATION1\DEBUG\VC142.IDB
C:\MY PROJECTS\C++\CONSOLEAPPLICATION1\DEBUG\CONSOLEAPPLICATION1.OBJ
